@startuml

title __Design de l'Abstraction du Media de sérialisation__\n

  namespace fr.cnam.foad.nfa035.badges.wallet.fileutils.streaming {
    namespace media {
      namespace impl {
        class fr.cnam.foad.nfa035.badges.wallet.fileutils.streaming.media.impl.ImageByteArrayFrame {
            + ImageByteArrayFrame()
            + getEncodedImageInput()
            + getEncodedImageOutput()
        }
      }
    }
  }


  namespace fr.cnam.foad.nfa035.badges.wallet.fileutils.streaming {
    namespace media {
      namespace impl {
        class fr.cnam.foad.nfa035.badges.wallet.fileutils.streaming.media.impl.ImageFileFrame {
            + ImageFileFrame()
            + getEncodedImageInput()
            + getEncodedImageOutput()
        }
      }
    }
  }


  namespace fr.cnam.foad.nfa035.badges.wallet.fileutils.streaming {
    namespace media {
      namespace impl {
        class fr.cnam.foad.nfa035.badges.wallet.fileutils.streaming.media.impl.ResumableImageFileFrame {
            - reader : BufferedReader
            + ResumableImageFileFrame()
            + getEncodedImageInput()
            + getEncodedImageOutput()
            + getEncodedImageReader()
        }
      }
    }
  }


  fr.cnam.foad.nfa035.badges.wallet.fileutils.streaming.media.impl.ImageByteArrayFrame -up-|> fr.cnam.foad.nfa035.badges.wallet.fileutils.streaming.media.AbstractImageFrameMedia
  fr.cnam.foad.nfa035.badges.wallet.fileutils.streaming.media.impl.ImageFileFrame -up-|> fr.cnam.foad.nfa035.badges.wallet.fileutils.streaming.media.AbstractImageFrameMedia
  fr.cnam.foad.nfa035.badges.wallet.fileutils.streaming.media.ResumableImageFrameMedia -up-|> fr.cnam.foad.nfa035.badges.wallet.fileutils.streaming.media.ImageFrameMedia
  fr.cnam.foad.nfa035.badges.wallet.fileutils.streaming.media.impl.ResumableImageFileFrame .up.|> fr.cnam.foad.nfa035.badges.wallet.fileutils.streaming.media.ResumableImageFrameMedia
  fr.cnam.foad.nfa035.badges.wallet.fileutils.streaming.media.impl.ResumableImageFileFrame -up-|> fr.cnam.foad.nfa035.badges.wallet.fileutils.streaming.media.AbstractImageFrameMedia

  namespace fr.cnam.foad.nfa035.badges.wallet.fileutils.streaming {
    namespace media {
      abstract class fr.cnam.foad.nfa035.badges.wallet.fileutils.streaming.media.AbstractImageFrameMedia {
          + AbstractImageFrameMedia()
          + getChannel()
          {abstract} + getEncodedImageInput()
          {abstract} + getEncodedImageOutput()
          + setChannel()
          # AbstractImageFrameMedia()
      }
    }
  }


  namespace fr.cnam.foad.nfa035.badges.wallet.fileutils.streaming {
    namespace media {
      interface fr.cnam.foad.nfa035.badges.wallet.fileutils.streaming.media.ImageFrameMedia {
          {abstract} + getChannel()
          {abstract} + getEncodedImageOutput()
      }
    }
  }


  namespace fr.cnam.foad.nfa035.badges.wallet.fileutils.streaming {
    namespace media {
      interface fr.cnam.foad.nfa035.badges.wallet.fileutils.streaming.media.ResumableImageFrameMedia {
          {abstract} + getEncodedImageReader()
      }
    }
  }


  fr.cnam.foad.nfa035.badges.wallet.fileutils.streaming.media.AbstractImageFrameMedia .up.|> fr.cnam.foad.nfa035.badges.wallet.fileutils.streaming.media.ImageFrameMedia
  fr.cnam.foad.nfa035.badges.wallet.fileutils.streaming.media.AbstractImageFrameMedia o-- T : channel

  namespace fr.cnam.foad.nfa035.badges.wallet.fileutils.streaming {
    namespace media {
      namespace impl {
        class fr.cnam.foad.nfa035.badges.wallet.fileutils.streaming.media.impl.ImageByteArrayFrame {
            + ImageByteArrayFrame()
            + getEncodedImageInput()
            + getEncodedImageOutput()
        }
      }
    }
  }


  namespace fr.cnam.foad.nfa035.badges.wallet.fileutils.streaming {
    namespace media {
      namespace impl {
        class fr.cnam.foad.nfa035.badges.wallet.fileutils.streaming.media.impl.ImageFileFrame {
            + ImageFileFrame()
            + getEncodedImageInput()
            + getEncodedImageOutput()
        }
      }
    }
  }


  namespace fr.cnam.foad.nfa035.badges.wallet.fileutils.streaming {
    namespace media {
      namespace impl {
        class fr.cnam.foad.nfa035.badges.wallet.fileutils.streaming.media.impl.ResumableImageFileFrame {
            - fileOutputStream : FileOutputStream
            - reader : BufferedReader
            + ResumableImageFileFrame()
            + getEncodedImageInput()
            + getEncodedImageOutput()
            + getEncodedImageReader()
        }
      }
    }
  }


  namespace fr.cnam.foad.nfa035.badges.wallet.fileutils.streaming {
    namespace media {
      namespace impl {
        class fr.cnam.foad.nfa035.badges.wallet.fileutils.streaming.media.impl.WalletFrame {
            ~ numberOfLines : long
            {static} - LOG : Logger
            - fileOutputStream : FileOutputStream
            - reader : BufferedReader
            + WalletFrame()
            + getEncodedImageInput()
            + getEncodedImageOutput()
            + getEncodedImageReader()
            + getNumberOfLines()
            + incrementLines()
        }
      }
    }
  }

  fr.cnam.foad.nfa035.badges.wallet.fileutils.streaming.media.impl.WalletFrame .up.|> fr.cnam.foad.nfa035.badges.wallet.fileutils.streaming.media.WalletFrameMedia
  fr.cnam.foad.nfa035.badges.wallet.fileutils.streaming.media.impl.WalletFrame .up.|> java.lang.AutoCloseable

  namespace fr.cnam.foad.nfa035.badges.wallet.fileutils.streaming {
    namespace media {
      interface fr.cnam.foad.nfa035.badges.wallet.fileutils.streaming.media.WalletFrameMedia {
          {abstract} + getNumberOfLines()
          {abstract} + incrementLines()
      }
    }
  }

right footer


PlantUML diagram generated by SketchIt! (https://bitbucket.org/pmesmeur/sketch.it)
For more information about this tool, please contact philippe.mesmeur@gmail.com
endfooter

@enduml


right footer


PlantUML diagram generated by SketchIt! (https://bitbucket.org/pmesmeur/sketch.it)
For more information about this tool, please contact philippe.mesmeur@gmail.com
endfooter

@enduml
